{
  "name": "hello-world",
  "version": "0.0.0",
  "bin": "./source",
  "private": true,
  "description": "test",
  "author": "",
  "license": "Apache-2.0",
  "dependencies": {
    "microbit": "^2.0.0-rc7"
  }
}
